Problem Set 3 – PSYC BC1101
…
This is a very common data format. It’s called “wide,” because each variable gets its own column; the spreadsheet gets wider with each additional variable measured. However, an alternative data structure is “long”-formatted data. Rather than having multiple columns for each variable, there would be one column to identify the variable, and a second storing the value. Rather than getting wider, the spreadsheet gets longer, because each participant’s responses take up multiple rows rather than multiple columns. Let’s use tidyr’s pivot_longer() function to show what I mean.

demo_long <- demo_wide |> 
  pivot_longer(-participant, 
               names_to = "condition",
               values_to = "score")

demo_long

# A tibble: 27 × 3
   participant condition   score
         <int> <chr>       <int>
 1           1 condition_a     1
 2           1 condition_b     3
 3           1 condition_c     5
 4           2 condition_a     2
 5           2 condition_b     4
 6           2 condition_c     6
 7           3 condition_a     2
 8           3 condition_b     4
 9           3 condition_c     6
10           4 condition_a     3
# ℹ 17 more rows
…
